Data Wrangling
…
Tidy data

Tibbles

Tibbles are a key feature of the tidyverse, distinguishing it from most other R packages, which typically use standard data frames. You can convert a dataset to tibbles with as_tibble()

Example

library(tidyverse)  #load tidyverse package
library(agridat)  #load agridat package
dat <- (australia.soybean)
dat <- as_tibble(dat)  #convert dataframe to tibble
dat

# A tibble: 464 × 10
   env   loc    year gen   yield height lodging  size protein   oil
   <fct> <fct> <int> <fct> <dbl>  <dbl>   <dbl> <dbl>   <dbl> <dbl>
 1 L70   Lawes  1970 G01    2.39  1.44     4.25  8.45    36.7  20.9
 2 L70   Lawes  1970 G02    2.28  1.45     4.25  9.95    37.6  20.7
 3 L70   Lawes  1970 G03    2.57  1.46     3.75 10.8     37.8  21.3
 4 L70   Lawes  1970 G04    2.88  1.26     3.5  10.0     38.4  22.0
 5 L70   Lawes  1970 G05    2.39  1.34     3.5  11       37.5  22.1
 6 L70   Lawes  1970 G06    2.41  1.36     4    11.8     38.2  21.2
 7 L70   Lawes  1970 G07    2.70  1.3      3    11.8     37.4  21.7
 8 L70   Lawes  1970 G08    2.46  0.955    3.25 10       35.2  21.1
 9 L70   Lawes  1970 G09    2.57  1.03     3    11.2     35.9  21.5
10 L70   Lawes  1970 G10    2.98  1.16     3.75 10.8     39.7  20.4
# ℹ 454 more rows
…
Data import can be done with the readr package which is a core tidyverse package. This is used for reading data stored in text file spreadsheets into R. Some readr’s function are used in turning flat files into dataframe. You can load readr using the code library(readr), this gives you access to functions such as: read_csv() for reading comma delimited files, read_csv2() for semicolon separated files, read_table for white space separated values etc.

# install readr package
install.packages("readr")

# load the package
library(readr)

# read the csv file into a tibble

data <- read_csv("steptoe.morex.pheno.csv")
data

# A tibble: 2,432 × 10
   gen     env   amylase diapow hddate lodging  malt height protein yield
   <chr>   <chr>   <dbl>  <dbl>  <dbl>   <dbl> <dbl>  <dbl>   <dbl> <dbl>
 1 Steptoe MN92     22.7     46   150.      NA  73.6   84.5    10.5  5.53
 2 Steptoe MTi92    30.1     72   178       10  76.5   NA      11.2  8.64
 3 Steptoe MTd92    26.7     78   165       15  74.5   75.5    13.4  5.90
 4 Steptoe ID91     26.2     74   179       NA  74.1  111      12.1  8.63
 5 Steptoe OR91     19.6     62   191       NA  71.5   90      11.7  5.34
 6 Steptoe WA91     23.6     54   181       NA  73.8  112      10    6.27
 7 Steptoe MTi91    21       62   181       NA  70.8   98      12    4.10
 8 Steptoe MTd91    NA       NA   181       NA  NA     82      NA    7.07
 9 Steptoe NY92     NA       NA   176        0  NA     77.5    NA    6.05
10 Steptoe ON92     NA       NA   198       50  NA     95      NA    3.70
# ℹ 2,422 more rows
…
The readxl library can also be assessed from the readr package and it is used to import excel files. The functions to import excel files are read_excel() or read_xlsx(). The read_excel() auto detect the format while read_xlsl()permits more than two sheets in a file.

Example

# install the readxl package install.packages('readxl')

# load the readxl package
library(readxl)

# Read the Excel file into a tibble
dat <- read_excel("Sugar cane.xlsx", sheet = "Sugar cane")
dat

# A tibble: 30 × 6
   Choice Stalks Height Diameter  Cane Variety
    <dbl>  <dbl>  <dbl>    <dbl> <dbl>   <dbl>
 1      1     23   2.37     1.7  12.4        2
 2      0     11   2.25     1.68  5.49       3
 3      0      9   2.5      1.93  6.59       2
 4      1     25   2.4      2.12 21.2        2
 5      1     20   2.5      1.7  11.4        1
 6      0     12   1.9      1.51  4.08       1
 7      0     12   1.7      1.34  2.88       3
 8      1     16   2.4      1.84 10.2        1
 9      0      4   2.4      2.11  3.36       3
10      1     11   2.35     2     8.12       1
# ℹ 20 more rows
…
# dbl(double) and int(integer) are numeric

Data Import

# Read csv file: supply the path to a file and you get the data into R

library(readr)
mydata <- read_csv("C:/Users/DOjekere/CGIAR/Fowobaje, Kayode Rapheal (IITA) - Training Materials/2024/R/RMD Training/Example-02.csv")
mydata

# A tibble: 464 × 10
   env   loc    year gen   yield height lodging  size protein   oil
   <chr> <chr> <dbl> <chr> <dbl>  <dbl>   <dbl> <dbl>   <dbl> <dbl>
 1 L70   Lawes  1970 G01    2.39  1.44     4.25  8.45    36.7  20.9
 2 L70   Lawes  1970 G02    2.28  1.45     4.25  9.95    37.6  20.7
 3 L70   Lawes  1970 G03    2.57  1.46     3.75 10.8     37.8  21.3
 4 L70   Lawes  1970 G04    2.88  1.26     3.5  10.0     38.4  22.0
 5 L70   Lawes  1970 G05    2.39  1.34     3.5  11       37.5  22.1
 6 L70   Lawes  1970 G06    2.41  1.36     4    11.8     38.2  21.2
 7 L70   Lawes  1970 G07    2.70  1.3      3    11.8     37.4  21.7
 8 L70   Lawes  1970 G08    2.46  0.955    3.25 10       35.2  21.1
 9 L70   Lawes  1970 G09    2.57  1.03     3    11.2     35.9  21.5
10 L70   Lawes  1970 G10    2.98  1.16     3.75 10.8     39.7  20.4
# ℹ 454 more rows
…
mydata1 <- read_csv("Example-02.csv")  # Tab keyboard

## Read xlsx file
library(readxl)
iwu <- read_excel("C:/Users/DOjekere/CGIAR/Fowobaje, Kayode Rapheal (IITA) - Training Materials/2024/R/RMD Training/Example-03.xlsx",
    sheet = "whitecorn")

## Read Excel file:
mydata2 <- read_excel("Example-03.xlsx", sheet = "whitecorn")
View(mydata2)
mydata2

# A tibble: 540 × 9
   loc          gen       yield stand rootlodge stalklodge earht flower moisture
   <chr>        <chr>     <dbl> <dbl>     <dbl>      <dbl> <dbl>  <dbl>    <dbl>
 1 Knoxville,TN AgriGold…  138.  91.1         0        0    47.3   67.3     21.7
 2 Knoxville,TN AgriGold…  151   86.1         0        0.6  45     67.7     21.5
 3 Knoxville,TN Asgrow_X…  140.  94.4         0        0.6  46.3   67       19.8
 4 Knoxville,TN Beck_Ex2…  190.  90           0        0    57     67.3     19.4
 5 Knoxville,TN Crows_W54  141.  88.9         0        0.6  47     68.7     21.1
 6 Knoxville,TN Crows_W55  139.  88.9         0        1.2  52     66.7     20  
 7 Knoxville,TN Crows_EX…  179.  88.9         0        0.7  47     67.3     20.2
 8 Knoxville,TN Crows_EX…  180   94.4         0        1.8  49     67.7     19.9
 9 Knoxville,TN Dekalb_D…  166.  98.9         0        0.6  47     67       21.3
10 Knoxville,TN Dekalb_D…  169.  99.4         0        1.1  37     65.3     19.1
# ℹ 530 more rows

Data Transformation

library(tidyverse)

example02 <- read_csv("Example-02.csv")
example02

# A tibble: 464 × 10
   env   loc    year gen   yield height lodging  size protein   oil
   <chr> <chr> <dbl> <chr> <dbl>  <dbl>   <dbl> <dbl>   <dbl> <dbl>
 1 L70   Lawes  1970 G01    2.39  1.44     4.25  8.45    36.7  20.9
 2 L70   Lawes  1970 G02    2.28  1.45     4.25  9.95    37.6  20.7
 3 L70   Lawes  1970 G03    2.57  1.46     3.75 10.8     37.8  21.3
 4 L70   Lawes  1970 G04    2.88  1.26     3.5  10.0     38.4  22.0
 5 L70   Lawes  1970 G05    2.39  1.34     3.5  11       37.5  22.1
 6 L70   Lawes  1970 G06    2.41  1.36     4    11.8     38.2  21.2
 7 L70   Lawes  1970 G07    2.70  1.3      3    11.8     37.4  21.7
 8 L70   Lawes  1970 G08    2.46  0.955    3.25 10       35.2  21.1
 9 L70   Lawes  1970 G09    2.57  1.03     3    11.2     35.9  21.5
10 L70   Lawes  1970 G10    2.98  1.16     3.75 10.8     39.7  20.4
# ℹ 454 more rows
…
[1] "Lawes"      "Brookstead" "Nambour"    "RedlandBay"

The pipe |>

Pipes are a powerful tool for clearly expressing a sequence of multiple operations. Object |> (object is usually a tibble, a data) Function(argument1, argument2, …)

Filter

We can filter the data for 1970

example02.70 <- example02 |>
    filter(year == 1970)
example02.70

# A tibble: 232 × 10
   env   loc    year gen   yield height lodging  size protein   oil
   <chr> <chr> <dbl> <chr> <dbl>  <dbl>   <dbl> <dbl>   <dbl> <dbl>
 1 L70   Lawes  1970 G01    2.39  1.44     4.25  8.45    36.7  20.9
 2 L70   Lawes  1970 G02    2.28  1.45     4.25  9.95    37.6  20.7
 3 L70   Lawes  1970 G03    2.57  1.46     3.75 10.8     37.8  21.3
 4 L70   Lawes  1970 G04    2.88  1.26     3.5  10.0     38.4  22.0
 5 L70   Lawes  1970 G05    2.39  1.34     3.5  11       37.5  22.1
 6 L70   Lawes  1970 G06    2.41  1.36     4    11.8     38.2  21.2
 7 L70   Lawes  1970 G07    2.70  1.3      3    11.8     37.4  21.7
 8 L70   Lawes  1970 G08    2.46  0.955    3.25 10       35.2  21.1
 9 L70   Lawes  1970 G09    2.57  1.03     3    11.2     35.9  21.5
10 L70   Lawes  1970 G10    2.98  1.16     3.75 10.8     39.7  20.4
# ℹ 222 more rows

Filtering using the pipe is equivalent to below but not nice

example02.70.not.nice <- example02[example02$year == 1970, ]

example02.70.not.nice

# A tibble: 232 × 10
   env   loc    year gen   yield height lodging  size protein   oil
   <chr> <chr> <dbl> <chr> <dbl>  <dbl>   <dbl> <dbl>   <dbl> <dbl>
 1 L70   Lawes  1970 G01    2.39  1.44     4.25  8.45    36.7  20.9
 2 L70   Lawes  1970 G02    2.28  1.45     4.25  9.95    37.6  20.7
 3 L70   Lawes  1970 G03    2.57  1.46     3.75 10.8     37.8  21.3
 4 L70   Lawes  1970 G04    2.88  1.26     3.5  10.0     38.4  22.0
 5 L70   Lawes  1970 G05    2.39  1.34     3.5  11       37.5  22.1
 6 L70   Lawes  1970 G06    2.41  1.36     4    11.8     38.2  21.2
 7 L70   Lawes  1970 G07    2.70  1.3      3    11.8     37.4  21.7
 8 L70   Lawes  1970 G08    2.46  0.955    3.25 10       35.2  21.1
 9 L70   Lawes  1970 G09    2.57  1.03     3    11.2     35.9  21.5
10 L70   Lawes  1970 G10    2.98  1.16     3.75 10.8     39.7  20.4
# ℹ 222 more rows

We can filter the data for one location :

example02.Lawes <- example02 |>
    filter(loc == "Lawes")

example02.Lawes

# A tibble: 116 × 10
   env   loc    year gen   yield height lodging  size protein   oil
   <chr> <chr> <dbl> <chr> <dbl>  <dbl>   <dbl> <dbl>   <dbl> <dbl>
 1 L70   Lawes  1970 G01    2.39  1.44     4.25  8.45    36.7  20.9
 2 L70   Lawes  1970 G02    2.28  1.45     4.25  9.95    37.6  20.7
 3 L70   Lawes  1970 G03    2.57  1.46     3.75 10.8     37.8  21.3
 4 L70   Lawes  1970 G04    2.88  1.26     3.5  10.0     38.4  22.0
 5 L70   Lawes  1970 G05    2.39  1.34     3.5  11       37.5  22.1
 6 L70   Lawes  1970 G06    2.41  1.36     4    11.8     38.2  21.2
 7 L70   Lawes  1970 G07    2.70  1.3      3    11.8     37.4  21.7
 8 L70   Lawes  1970 G08    2.46  0.955    3.25 10       35.2  21.1
 9 L70   Lawes  1970 G09    2.57  1.03     3    11.2     35.9  21.5
10 L70   Lawes  1970 G10    2.98  1.16     3.75 10.8     39.7  20.4
# ℹ 106 more rows
…
Arrange

We can arrange example02 by yield in ascending order

library(tidyverse)
library(readxl)
example02 <- read_csv("Example-02.csv")

example02 |>
    arrange(yield)

# A tibble: 464 × 10
   env   loc         year gen   yield height lodging  size protein   oil
   <chr> <chr>      <dbl> <chr> <dbl>  <dbl>   <dbl> <dbl>   <dbl> <dbl>
 1 N70   Nambour     1970 G58   0.282  0.395    1    17.4     39.2  20.8
 2 R70   RedlandBay  1970 G36   0.365  0.915    3.75  6.15    42.9  14.3
 3 B70   Brookstead  1970 G08   0.385  1.12     2.25  6.15    38.5  17.9
 4 B70   Brookstead  1970 G30   0.424  1.07     2.5   5.75    40.2  16.5
 5 R70   RedlandBay  1970 G11   0.455  1.00     3.5   4       42.9  14.2
 6 B70   Brookstead  1970 G52   0.466  0.56     1.25 10.2     40.4  17.4
 7 B70   Brookstead  1970 G03   0.468  1.16     2.25 10.8     37.8  20.4
 8 R70   RedlandBay  1970 G17   0.487  0.89     3.25  5.65    44.8  13.1
 9 R70   RedlandBay  1970 G12   0.492  1.05     3.25  4.1     41.8  13.9
10 R70   RedlandBay  1970 G31   0.517  0.93     3.5   6.7     42.6  15.6
# ℹ 454 more rows

We can arrange example02 by yield in descending order

example02 |>
    arrange(desc(yield))

# A tibble: 464 × 10
   env   loc         year gen   yield height lodging  size protein   oil
   <chr> <chr>      <dbl> <chr> <dbl>  <dbl>   <dbl> <dbl>   <dbl> <dbl>
 1 L70   Lawes       1970 G48    4.38  0.76     3.75  18.8    38.2  24.4
 2 R70   RedlandBay  1970 G56    4.13  0.56     2.25  19.0    38    24.0
 3 R71   RedlandBay  1971 G49    4.00  0.905    1.75  17.2    36.6  22.6
 4 B71   Brookstead  1971 G49    3.90  1.00     2.25  21.6    37.5  22.2
 5 L71   Lawes       1971 G45    3.82  0.56     1.25  19.6    36.3  23.7
 6 B71   Brookstead  1971 G53    3.82  0.675    1.75  21.9    39.0  22.1
 7 B71   Brookstead  1971 G45    3.75  0.735    2.5   23.6    37.9  22.1
 8 R70   RedlandBay  1970 G57    3.67  0.545    1.75  16.6    38.2  23.7
 9 R70   RedlandBay  1970 G49    3.62  1.02     3.5   14.2    36.3  23.4
10 B71   Brookstead  1971 G50    3.61  0.75     3     19.3    40.2  23.3
# ℹ 454 more rows

We can arrange example02 by year, loc, gen

example02 |>
    arrange(year, loc, gen)

# A tibble: 464 × 10
   env   loc         year gen   yield height lodging  size protein   oil
   <chr> <chr>      <dbl> <chr> <dbl>  <dbl>   <dbl> <dbl>   <dbl> <dbl>
 1 B70   Brookstead  1970 G01   1.25    1.01    3.25  8.85    39.5  18.8
 2 B70   Brookstead  1970 G02   1.17    1.13    2.75  8.9     38.6  19.8
 3 B70   Brookstead  1970 G03   0.468   1.16    2.25 10.8     37.8  20.4
 4 B70   Brookstead  1970 G04   1.44    1.24    1.5  10.6     38.7  20.4
 5 B70   Brookstead  1970 G05   1.34    1.12    2    12.0     37.8  20.8
 6 B70   Brookstead  1970 G06   0.913   1.10    2.25 11       37.4  19.9
 7 B70   Brookstead  1970 G07   1.24    1.13    2    10.2     37.8  20.3
 8 B70   Brookstead  1970 G08   0.385   1.12    2.25  6.15    38.5  17.9
 9 B70   Brookstead  1970 G09   1.11    1.04    1.75  8.3     37.9  20.0
10 B70   Brookstead  1970 G10   1.80    1.04    2    11.8     38.4  19.7
# ℹ 454 more rows

example02 |>
    arrange(desc(year), loc, gen)

# A tibble: 464 × 10
   env   loc         year gen   yield height lodging  size protein   oil
   <chr> <chr>      <dbl> <chr> <dbl>  <dbl>   <dbl> <dbl>   <dbl> <dbl>
 1 B71   Brookstead  1971 G01    2.56  0.965    3.25   8.9    40.3  18.2
 2 B71   Brookstead  1971 G02    2.34  0.835    2.75  10.9    41.8  18.8
 3 B71   Brookstead  1971 G03    2.87  0.98     3.25  12.4    39.8  19.6
 4 B71   Brookstead  1971 G04    3.01  0.9      2.25  12.8    38.5  19.5
 5 B71   Brookstead  1971 G05    2.54  0.975    3.25  13.3    39.4  19.9
 6 B71   Brookstead  1971 G06    1.88  0.94     3.25  12.8    37.6  19.6
 7 B71   Brookstead  1971 G07    2.56  0.95     2.75  14      37.4  19.5
 8 B71   Brookstead  1971 G08    1.61  0.915    3     12.3    37.7  19.0
 9 B71   Brookstead  1971 G09    2.24  0.85     2.75  12.0    39.6  18.2
10 B71   Brookstead  1971 G10    2.60  0.81     2.5   13.4    40.0  18.6
# ℹ 454 more rows

Select

When working with many variables, it can be a good practice to narrow the dataset and consider only few variables for analysis. Let’s only consider the location, year, genotype, yield, and height

example02.short <- example02 |>
    select(loc, year, gen, yield, height)

example02.short

# A tibble: 464 × 5
   loc    year gen   yield height
   <chr> <dbl> <chr> <dbl>  <dbl>
 1 Lawes  1970 G01    2.39  1.44 
 2 Lawes  1970 G02    2.28  1.45 
 3 Lawes  1970 G03    2.57  1.46 
 4 Lawes  1970 G04    2.88  1.26 
 5 Lawes  1970 G05    2.39  1.34 
 6 Lawes  1970 G06    2.41  1.36 
 7 Lawes  1970 G07    2.70  1.3  
 8 Lawes  1970 G08    2.46  0.955
 9 Lawes  1970 G09    2.57  1.03 
10 Lawes  1970 G10    2.98  1.16 
# ℹ 454 more rows

If we are interested in moving a particular variable to the first column in the dataframe, select() and everything() can do that. We can also move more than one variable

example02 |>
    select(year, everything())

# A tibble: 464 × 10
    year env   loc   gen   yield height lodging  size protein   oil
   <dbl> <chr> <chr> <chr> <dbl>  <dbl>   <dbl> <dbl>   <dbl> <dbl>
 1  1970 L70   Lawes G01    2.39  1.44     4.25  8.45    36.7  20.9
 2  1970 L70   Lawes G02    2.28  1.45     4.25  9.95    37.6  20.7
 3  1970 L70   Lawes G03    2.57  1.46     3.75 10.8     37.8  21.3
 4  1970 L70   Lawes G04    2.88  1.26     3.5  10.0     38.4  22.0
 5  1970 L70   Lawes G05    2.39  1.34     3.5  11       37.5  22.1
 6  1970 L70   Lawes G06    2.41  1.36     4    11.8     38.2  21.2
 7  1970 L70   Lawes G07    2.70  1.3      3    11.8     37.4  21.7
 8  1970 L70   Lawes G08    2.46  0.955    3.25 10       35.2  21.1
 9  1970 L70   Lawes G09    2.57  1.03     3    11.2     35.9  21.5
10  1970 L70   Lawes G10    2.98  1.16     3.75 10.8     39.7  20.4
# ℹ 454 more rows

example02 |>
    select(year, loc, gen, everything())

# A tibble: 464 × 10
    year loc   gen   env   yield height lodging  size protein   oil
   <dbl> <chr> <chr> <chr> <dbl>  <dbl>   <dbl> <dbl>   <dbl> <dbl>
 1  1970 Lawes G01   L70    2.39  1.44     4.25  8.45    36.7  20.9
 2  1970 Lawes G02   L70    2.28  1.45     4.25  9.95    37.6  20.7
 3  1970 Lawes G03   L70    2.57  1.46     3.75 10.8     37.8  21.3
 4  1970 Lawes G04   L70    2.88  1.26     3.5  10.0     38.4  22.0
 5  1970 Lawes G05   L70    2.39  1.34     3.5  11       37.5  22.1
 6  1970 Lawes G06   L70    2.41  1.36     4    11.8     38.2  21.2
 7  1970 Lawes G07   L70    2.70  1.3      3    11.8     37.4  21.7
 8  1970 Lawes G08   L70    2.46  0.955    3.25 10       35.2  21.1
 9  1970 Lawes G09   L70    2.57  1.03     3    11.2     35.9  21.5
10  1970 Lawes G10   L70    2.98  1.16     3.75 10.8     39.7  20.4
# ℹ 454 more rows

NOTE: Select refers to columns: select (yield, loc, gen) – choose the columns arrange refers to rows: arrange(loc, desc(yield)) – sort

example02 |>
    select(yield, loc, gen)

# A tibble: 464 × 3
   yield loc   gen  
   <dbl> <chr> <chr>
 1  2.39 Lawes G01  
 2  2.28 Lawes G02  
 3  2.57 Lawes G03  
 4  2.88 Lawes G04  
 5  2.39 Lawes G05  
 6  2.41 Lawes G06  
 7  2.70 Lawes G07  
 8  2.46 Lawes G08  
 9  2.57 Lawes G09  
10  2.98 Lawes G10  
# ℹ 454 more rows
…
example02 |>
    group_by(gen) |>
    summarise(yield = mean(yield, na.rm = TRUE)) |>
    arrange(desc(yield))

# A tibble: 58 × 2
   gen   yield
   <chr> <dbl>
 1 G49    3.22
 2 G48    3.05
 3 G50    2.97
 4 G45    2.91
 5 G57    2.89
 6 G53    2.87
 7 G56    2.82
 8 G47    2.66
 9 G55    2.53
10 G04    2.44
# ℹ 48 more rows

example02 |>
    group_by(gen, loc) |>
    summarise(yield = mean(yield, na.rm = TRUE)) |>
    arrange(desc(yield))

# A tibble: 232 × 3
# Groups:   gen [58]
   gen   loc        yield
   <chr> <chr>      <dbl>
 1 G48   Lawes       3.98
 2 G49   RedlandBay  3.81
 3 G45   Lawes       3.54
 4 G50   Brookstead  3.39
 5 G53   Brookstead  3.36
 6 G49   Brookstead  3.35
 7 G45   Brookstead  3.27
 8 G57   Lawes       3.26
 9 G50   Lawes       3.24
10 G57   Brookstead  3.20
# ℹ 222 more rows
…
# A tibble: 3 × 10
  env   loc      year gen   yield height lodging  size protein   oil
  <chr> <chr>   <dbl> <chr> <dbl>  <dbl>   <dbl> <dbl>   <dbl> <dbl>
1 L70   Lawes    1970 G29      NA  1.13     4     9.65    39.4  19.9
2 L70   Lawes    1970 G32      NA  1.73     3.5   9.65    42.2  18.7
3 N70   Nambour  1970 G06      NA  0.595    1.25 12.0     35.1  23.2

The total number of obs is 464

example02.missing |>
    filter(!is.na(yield))

# A tibble: 461 × 10
   env   loc    year gen   yield height lodging  size protein   oil
   <chr> <chr> <dbl> <chr> <dbl>  <dbl>   <dbl> <dbl>   <dbl> <dbl>
 1 L70   Lawes  1970 G01    2.39  1.44     4.25  8.45    36.7  20.9
 2 L70   Lawes  1970 G02    2.28  1.45     4.25  9.95    37.6  20.7
 3 L70   Lawes  1970 G03    2.57  1.46     3.75 10.8     37.8  21.3
 4 L70   Lawes  1970 G04    2.88  1.26     3.5  10.0     38.4  22.0
 5 L70   Lawes  1970 G05    2.39  1.34     3.5  11       37.5  22.1
 6 L70   Lawes  1970 G06    2.41  1.36     4    11.8     38.2  21.2
 7 L70   Lawes  1970 G07    2.70  1.3      3    11.8     37.4  21.7
 8 L70   Lawes  1970 G08    2.46  0.955    3.25 10       35.2  21.1
 9 L70   Lawes  1970 G09    2.57  1.03     3    11.2     35.9  21.5
10 L70   Lawes  1970 G10    2.98  1.16     3.75 10.8     39.7  20.4
# ℹ 451 more rows
…
