Supervised Machine Learning
…
STEP 1 - Data pre-processing

STEP 2 - Train the Model

STEP 3 - Evaluate the Model

STEP 4 - Test the Model

library(tidyverse) #for data import & wrangling 
library(caret) #for model performance evaluation 
data <- read_csv("Honey.Wildflower.csv", na = c("", "NA")) 
data

# A tibble: 13,016 × 11
      CS Density    WC    pH    EC     F     G Pollen_analysis Viscosity Purity
   <dbl>   <dbl> <dbl> <dbl> <dbl> <dbl> <dbl> <chr>               <dbl>  <dbl>
 1  3       1.53  13.6  6.86  0.72  42.5  29.0 Wildflower          2675.   0.66
 2  8.79    1.6   14.5  3.11  0.82  29.5  32.1 Wildflower          8442.   0.82
 3  7.07    1.5   16.2  6.42  0.89  47.0  40.5 Wildflower          2095.   0.92
 4  3.93    1.47  22.2  4.09  0.79  23.9  36.8 Wildflower          4053.   0.82
 5  6.25    1.35  16.7  4.53  0.76  25.1  37.3 Wildflower          1822.   1   
 6  4.8     1.71  22.2  5.68  0.78  30.1  23.4 Wildflower          4733.   0.97
 7  6.58    1.54  15.4  3.45  0.7   49.3  24.5 Wildflower          7032.   1   
 8  7.59    1.83  23.2  2.65  0.79  26.4  32.2 Wildflower          8518.   0.66
 9  2.25    1.29  19.6  6.63  0.81  38.2  27.6 Wildflower          6782.   0.68
10  3.01    1.47  16.4  4.92  0.89  31.3  25.3 Wildflower          3868.   0.84
# ℹ 13,006 more rows
# ℹ 1 more variable: Price <dbl>
…
